Animal Crossing Data
…
Anlayzing the Reviews

With the critic and user reviews, we can analyze text data using sentiment analysis to determine whether a review was positive or negative.

Critic Reviews

critic_reviews_tidy = critic %>%
  unnest_tokens(output = word, input = text)

critic_sentiment = critic_reviews_tidy %>%
  inner_join(get_sentiments("bing"), by = c("word" = "word"))

critic_sentiment

## # A tibble: 466 x 5
##    grade publication     date       word        sentiment
##    <dbl> <chr>           <date>     <chr>       <chr>    
##  1   100 Pocket Gamer UK 2020-03-16 like        positive 
##  2   100 Pocket Gamer UK 2020-03-16 tension     negative 
##  3   100 Pocket Gamer UK 2020-03-16 warmth      positive 
##  4   100 Pocket Gamer UK 2020-03-16 comfort     positive 
##  5   100 Forbes          2020-03-16 overwhelmed negative 
##  6   100 Forbes          2020-03-16 stuck       negative 
##  7   100 Telegraph       2020-03-16 lengthy     negative 
##  8   100 Telegraph       2020-03-16 suffice     positive 
##  9   100 Telegraph       2020-03-16 clearly     positive 
## 10   100 Telegraph       2020-03-16 worked      positive 
## #  with 456 more rows
…
Based off of these graphs, it appears as though there are a lot of positive reviews from the critics.

User Reviews

user_reviews_tidy = user_reviews %>%
  unnest_tokens(output = word, input = text)

user_sentiment = user_reviews_tidy %>%
  inner_join(get_sentiments("bing"), by = c("word" = "word")) 

user_sentiment

## # A tibble: 23,922 x 5
##    grade user_name date       word         sentiment
##    <dbl> <chr>     <date>     <chr>        <chr>    
##  1     4 mds27272  2020-03-20 sucks        negative 
##  2     4 mds27272  2020-03-20 miss         negative 
##  3     4 mds27272  2020-03-20 terrible     negative 
##  4     4 mds27272  2020-03-20 unacceptable negative 
##  5     5 lolo2178  2020-03-20 great        positive 
##  6     5 lolo2178  2020-03-20 gorgeous     positive 
##  7     5 lolo2178  2020-03-20 ignore       negative 
##  8     5 lolo2178  2020-03-20 ruins        negative 
##  9     5 lolo2178  2020-03-20 limits       negative 
## 10     5 lolo2178  2020-03-20 enjoy        positive 
## #  with 23,912 more rows
…
